ALGORYTM DOBREGO PRZESTAWIENIA
n	t
200	0.003
250	0.004
300	0.006
350	0.01
400	0.014
450	0.019
500	0.031
550	0.035
600	0.048
650	0.063
700	0.08
750	0.092
800	0.107
850	0.126
900	0.142
950	0.169
1000	0.184
2000	1.512
3000	5.15
4000	12.085
5000	23.891

